{
    "KPlugin": {
        "Category": "Appearance",
        "Description": "Helper Effect for KScreen",
        "Description[ar]": "تأثير مساعدة لـشاشة.ك",
        "Description[az]": "KScreen üşün köməkçi effekti",
        "Description[be]": "Дапаможны эфект для KScreen",
        "Description[bg]": "Помощен ефект за KScreen",
        "Description[ca@valencia]": "Efecte auxiliar per a KScreen",
        "Description[ca]": "Efecte auxiliar per al KScreen",
        "Description[cs]": "Pomocný efekt pro KScreen",
        "Description[de]": "Hilfseffekt für KScreen",
        "Description[en_GB]": "Helper Effect for KScreen",
        "Description[es]": "Efecto auxiliar para KScreen",
        "Description[et]": "KScreeni abiefekt",
        "Description[eu]": "KScreen-en efektu laguntzailea",
        "Description[fi]": "Avustustehoste KScreenille",
        "Description[fr]": "Effet d'assistance pour KScreen",
        "Description[hu]": "Segédeffektus a KScreenhez",
        "Description[ia]": "Effecto de adjutante pro KScreen",
        "Description[id]": "Efek penunjang untuk KScreen",
        "Description[it]": "Effetto di assistenza per KScreen",
        "Description[ka]": "დამხმარე ეფექტი KScreen -ისთვის",
        "Description[ko]": "KScreen 도우미 효과",
        "Description[nl]": "Effect van hulp voor KScreen",
        "Description[nn]": "Hjelpareffekt for KScreen",
        "Description[pl]": "Efekt pomocniczy dla KEkranu",
        "Description[pt]": "Efeito Auxiliar do KScreen",
        "Description[pt_BR]": "Efeito auxiliar do KScreen",
        "Description[ro]": "Efect ajutător pentru KScreen",
        "Description[ru]": "Вспомогательный эффект для KScreen",
        "Description[sk]": "Pomocný efekt pre KScreen",
        "Description[sl]": "Učinek pomočnika za KScreen",
        "Description[sv]": "Hjälpeffekt för Kskärm",
        "Description[ta]": "கேஸ்கிரீனுக்கான உதவி அசைவூட்டம்",
        "Description[tr]": "KScreen için Yardımcı Etkisi",
        "Description[uk]": "Допоміжний ефект KScreen",
        "Description[vi]": "Hiệu ứng trợ giúp cho KScreen",
        "Description[x-test]": "xxHelper Effect for KScreenxx",
        "Description[zh_CN]": "KScreen 的辅助特效",
        "Description[zh_TW]": "KScreen 輔助效果",
        "EnabledByDefault": true,
        "License": "GPL",
        "Name": "Kscreen",
        "Name[ar]": "شاشة.ك",
        "Name[az]": "Kscreen",
        "Name[be]": "Kscreen",
        "Name[bg]": "Kscreen",
        "Name[ca@valencia]": "Kscreen",
        "Name[ca]": "Kscreen",
        "Name[cs]": "Kscreen",
        "Name[de]": "KScreen",
        "Name[en_GB]": "Kscreen",
        "Name[es]": "Kscreen",
        "Name[et]": "Kscreen",
        "Name[eu]": "Kscreen",
        "Name[fi]": "KScreen",
        "Name[fr]": "Kscreen",
        "Name[hu]": "Kscreen",
        "Name[ia]": "Kscreen",
        "Name[id]": "KScreen",
        "Name[it]": "Kscreen",
        "Name[ja]": "Kscreen",
        "Name[ka]": "Kscreen",
        "Name[ko]": "Kscreen",
        "Name[nl]": "Kscreen",
        "Name[nn]": "KScreen",
        "Name[pl]": "KEkran",
        "Name[pt]": "Kscreen",
        "Name[pt_BR]": "KScreen",
        "Name[ro]": "Kscreen",
        "Name[ru]": "Kscreen",
        "Name[sk]": "Kscreen",
        "Name[sl]": "Kscreen",
        "Name[sv]": "Kskärm",
        "Name[ta]": "கேஸ்கிரீன்",
        "Name[tr]": "Kscreen",
        "Name[uk]": "Kscreen",
        "Name[vi]": "Kscreen",
        "Name[x-test]": "xxKscreenxx",
        "Name[zh_CN]": "Kscreen 辅助特效",
        "Name[zh_TW]": "KScreen"
    },
    "org.kde.kwin.effect": {
        "internal": true
    }
}
